[gd_resource type="StyleBoxFlat" format=2]

[resource]
bg_color = Color( 1, 1, 1, 1 )
draw_center = false
border_width_left = 2
border_width_top = 2
border_width_right = 2
border_width_bottom = 2
border_color = Color( 0.972549, 0.0235294, 0.027451, 1 )
border_blend = true
corner_radius_top_left = 3
corner_radius_top_right = 3
corner_radius_bottom_right = 3
corner_radius_bottom_left = 3
shadow_size = 5
