[gd_resource type="Environment" load_steps=3 format=2]

[ext_resource path="res://resursoj/stelamapo_8k.jpg" type="Texture" id=1]

[sub_resource type="PanoramaSky" id=1]
radiance_size = 6
panorama = ExtResource( 1 )

[resource]
background_mode = 2
background_sky = SubResource( 1 )
background_color = Color( 0.137255, 0.141176, 0.152941, 1 )
